%TF.GenerationSoftware,KiCad,Pcbnew,6.0.0+dfsg1-2*%
%TF.CreationDate,2022-01-17T02:10:43+01:00*%
%TF.ProjectId,cr,63722e6b-6963-4616-945f-706362585858,0.0.0*%
%TF.SameCoordinates,Original*%
%TF.FileFunction,Soldermask,Top*%
%TF.FilePolarity,Negative*%
%FSLAX46Y46*%
G04 Gerber Fmt 4.6, Leading zero omitted, Abs format (unit mm)*
G04 Created by KiCad (PCBNEW 6.0.0+dfsg1-2) date 2022-01-17 02:10:43*
%MOMM*%
%LPD*%
G01*
G04 APERTURE LIST*
G04 Aperture macros list*
%AMRoundRect*
0 Rectangle with rounded corners*
0 $1 Rounding radius*
0 $2 $3 $4 $5 $6 $7 $8 $9 X,Y pos of 4 corners*
0 Add a 4 corners polygon primitive as box body*
4,1,4,$2,$3,$4,$5,$6,$7,$8,$9,$2,$3,0*
0 Add four circle primitives for the rounded corners*
1,1,$1+$1,$2,$3*
1,1,$1+$1,$4,$5*
1,1,$1+$1,$6,$7*
1,1,$1+$1,$8,$9*
0 Add four rect primitives between the rounded corners*
20,1,$1+$1,$2,$3,$4,$5,0*
20,1,$1+$1,$4,$5,$6,$7,0*
20,1,$1+$1,$6,$7,$8,$9,0*
20,1,$1+$1,$8,$9,$2,$3,0*%
G04 Aperture macros list end*
%ADD10RoundRect,0.150000X0.825000X0.150000X-0.825000X0.150000X-0.825000X-0.150000X0.825000X-0.150000X0*%
%ADD11RoundRect,0.250000X-0.600000X-0.725000X0.600000X-0.725000X0.600000X0.725000X-0.600000X0.725000X0*%
%ADD12O,1.700000X1.950000*%
%ADD13O,1.500000X1.050000*%
%ADD14R,1.500000X1.050000*%
%ADD15R,0.800000X1.800000*%
%ADD16R,4.000000X2.000000*%
%ADD17O,3.300000X2.000000*%
%ADD18O,2.000000X3.500000*%
%ADD19C,1.600000*%
%ADD20C,2.400000*%
%ADD21O,3.600000X1.800000*%
%ADD22RoundRect,0.250000X1.550000X-0.650000X1.550000X0.650000X-1.550000X0.650000X-1.550000X-0.650000X0*%
%ADD23RoundRect,0.250000X0.550000X-1.250000X0.550000X1.250000X-0.550000X1.250000X-0.550000X-1.250000X0*%
G04 APERTURE END LIST*
D10*
%TO.C,U1*%
X145774977Y-108585000D03*
X145774977Y-107315000D03*
X145774977Y-106045000D03*
X145774977Y-104775000D03*
X140824977Y-104775000D03*
X140824977Y-106045000D03*
X140824977Y-107315000D03*
X140824977Y-108585000D03*
%TD*%
D11*
%TO.C,SW1*%
X121920000Y-93980000D03*
D12*
X124420000Y-93980000D03*
X126920000Y-93980000D03*
%TD*%
D13*
%TO.C,Q1*%
X130810000Y-101600000D03*
X130810000Y-102870000D03*
D14*
X130810000Y-100330000D03*
%TD*%
D15*
%TO.C,K1*%
X135890000Y-93330000D03*
X138430000Y-93330000D03*
X140970000Y-93330000D03*
X143510000Y-93330000D03*
X143510000Y-100330000D03*
X140970000Y-100330000D03*
X138430000Y-100330000D03*
X135890000Y-100330000D03*
%TD*%
D16*
%TO.C,Power*%
X124460000Y-106680000D03*
D17*
X124460000Y-112680000D03*
D18*
X119960000Y-113680000D03*
X128960000Y-113680000D03*
D19*
X124460000Y-115680000D03*
%TD*%
D20*
%TO.C,EXTPWR*%
X152400000Y-95917870D03*
X152400000Y-109997870D03*
D21*
X152400000Y-100417870D03*
D22*
X152400000Y-105497870D03*
%TD*%
D11*
%TO.C,micro*%
X142280000Y-116540000D03*
D12*
X144780000Y-116540000D03*
X147280000Y-116540000D03*
%TD*%
D23*
%TO.C,C2*%
X135890000Y-114890000D03*
X135890000Y-110490000D03*
%TD*%
M02*
