%TF.GenerationSoftware,KiCad,Pcbnew,6.0.0+dfsg1-2*%
%TF.CreationDate,2022-01-17T02:10:43+01:00*%
%TF.ProjectId,cr,63722e6b-6963-4616-945f-706362585858,0.0.0*%
%TF.SameCoordinates,Original*%
%TF.FileFunction,Legend,Top*%
%TF.FilePolarity,Positive*%
%FSLAX46Y46*%
G04 Gerber Fmt 4.6, Leading zero omitted, Abs format (unit mm)*
G04 Created by KiCad (PCBNEW 6.0.0+dfsg1-2) date 2022-01-17 02:10:43*
%MOMM*%
%LPD*%
G01*
G04 APERTURE LIST*
%ADD10C,0.150000*%
%ADD11C,0.120000*%
G04 APERTURE END LIST*
D10*
%TO.C,U1*%
X142538072Y-109532380D02*
X142538072Y-110341904D01*
X142585691Y-110437142D01*
X142633310Y-110484761D01*
X142728548Y-110532380D01*
X142919024Y-110532380D01*
X143014262Y-110484761D01*
X143061881Y-110437142D01*
X143109500Y-110341904D01*
X143109500Y-109532380D01*
X144109500Y-110532380D02*
X143538072Y-110532380D01*
X143823786Y-110532380D02*
X143823786Y-109532380D01*
X143728548Y-109675238D01*
X143633310Y-109770476D01*
X143538072Y-109818095D01*
%TO.C,SW1*%
X123086666Y-91584761D02*
X123229523Y-91632380D01*
X123467619Y-91632380D01*
X123562857Y-91584761D01*
X123610476Y-91537142D01*
X123658095Y-91441904D01*
X123658095Y-91346666D01*
X123610476Y-91251428D01*
X123562857Y-91203809D01*
X123467619Y-91156190D01*
X123277142Y-91108571D01*
X123181904Y-91060952D01*
X123134285Y-91013333D01*
X123086666Y-90918095D01*
X123086666Y-90822857D01*
X123134285Y-90727619D01*
X123181904Y-90680000D01*
X123277142Y-90632380D01*
X123515238Y-90632380D01*
X123658095Y-90680000D01*
X123991428Y-90632380D02*
X124229523Y-91632380D01*
X124420000Y-90918095D01*
X124610476Y-91632380D01*
X124848571Y-90632380D01*
X125753333Y-91632380D02*
X125181904Y-91632380D01*
X125467619Y-91632380D02*
X125467619Y-90632380D01*
X125372380Y-90775238D01*
X125277142Y-90870476D01*
X125181904Y-90918095D01*
%TO.C,Q1*%
X126904761Y-102147619D02*
X126809523Y-102100000D01*
X126714285Y-102004761D01*
X126571428Y-101861904D01*
X126476190Y-101814285D01*
X126380952Y-101814285D01*
X126428571Y-102052380D02*
X126333333Y-102004761D01*
X126238095Y-101909523D01*
X126190476Y-101719047D01*
X126190476Y-101385714D01*
X126238095Y-101195238D01*
X126333333Y-101100000D01*
X126428571Y-101052380D01*
X126619047Y-101052380D01*
X126714285Y-101100000D01*
X126809523Y-101195238D01*
X126857142Y-101385714D01*
X126857142Y-101719047D01*
X126809523Y-101909523D01*
X126714285Y-102004761D01*
X126619047Y-102052380D01*
X126428571Y-102052380D01*
X127809523Y-102052380D02*
X127238095Y-102052380D01*
X127523809Y-102052380D02*
X127523809Y-101052380D01*
X127428571Y-101195238D01*
X127333333Y-101290476D01*
X127238095Y-101338095D01*
%TO.C,K1*%
X133881904Y-91892380D02*
X133881904Y-90892380D01*
X134453333Y-91892380D02*
X134024761Y-91320952D01*
X134453333Y-90892380D02*
X133881904Y-91463809D01*
X135405714Y-91892380D02*
X134834285Y-91892380D01*
X135120000Y-91892380D02*
X135120000Y-90892380D01*
X135024761Y-91035238D01*
X134929523Y-91130476D01*
X134834285Y-91178095D01*
%TO.C,Power*%
X122483809Y-104832380D02*
X122483809Y-103832380D01*
X122864761Y-103832380D01*
X122960000Y-103880000D01*
X123007619Y-103927619D01*
X123055238Y-104022857D01*
X123055238Y-104165714D01*
X123007619Y-104260952D01*
X122960000Y-104308571D01*
X122864761Y-104356190D01*
X122483809Y-104356190D01*
X123626666Y-104832380D02*
X123531428Y-104784761D01*
X123483809Y-104737142D01*
X123436190Y-104641904D01*
X123436190Y-104356190D01*
X123483809Y-104260952D01*
X123531428Y-104213333D01*
X123626666Y-104165714D01*
X123769523Y-104165714D01*
X123864761Y-104213333D01*
X123912380Y-104260952D01*
X123960000Y-104356190D01*
X123960000Y-104641904D01*
X123912380Y-104737142D01*
X123864761Y-104784761D01*
X123769523Y-104832380D01*
X123626666Y-104832380D01*
X124293333Y-104165714D02*
X124483809Y-104832380D01*
X124674285Y-104356190D01*
X124864761Y-104832380D01*
X125055238Y-104165714D01*
X125817142Y-104784761D02*
X125721904Y-104832380D01*
X125531428Y-104832380D01*
X125436190Y-104784761D01*
X125388571Y-104689523D01*
X125388571Y-104308571D01*
X125436190Y-104213333D01*
X125531428Y-104165714D01*
X125721904Y-104165714D01*
X125817142Y-104213333D01*
X125864761Y-104308571D01*
X125864761Y-104403809D01*
X125388571Y-104499047D01*
X126293333Y-104832380D02*
X126293333Y-104165714D01*
X126293333Y-104356190D02*
X126340952Y-104260952D01*
X126388571Y-104213333D01*
X126483809Y-104165714D01*
X126579047Y-104165714D01*
%TO.C,EXTPWR*%
X148487142Y-91368571D02*
X148820476Y-91368571D01*
X148963333Y-91892380D02*
X148487142Y-91892380D01*
X148487142Y-90892380D01*
X148963333Y-90892380D01*
X149296666Y-90892380D02*
X149963333Y-91892380D01*
X149963333Y-90892380D02*
X149296666Y-91892380D01*
X150201428Y-90892380D02*
X150772857Y-90892380D01*
X150487142Y-91892380D02*
X150487142Y-90892380D01*
X151106190Y-91892380D02*
X151106190Y-90892380D01*
X151487142Y-90892380D01*
X151582380Y-90940000D01*
X151630000Y-90987619D01*
X151677619Y-91082857D01*
X151677619Y-91225714D01*
X151630000Y-91320952D01*
X151582380Y-91368571D01*
X151487142Y-91416190D01*
X151106190Y-91416190D01*
X152010952Y-90892380D02*
X152249047Y-91892380D01*
X152439523Y-91178095D01*
X152630000Y-91892380D01*
X152868095Y-90892380D01*
X153820476Y-91892380D02*
X153487142Y-91416190D01*
X153249047Y-91892380D02*
X153249047Y-90892380D01*
X153630000Y-90892380D01*
X153725238Y-90940000D01*
X153772857Y-90987619D01*
X153820476Y-91082857D01*
X153820476Y-91225714D01*
X153772857Y-91320952D01*
X153725238Y-91368571D01*
X153630000Y-91416190D01*
X153249047Y-91416190D01*
%TO.C,micro*%
X142922857Y-114192380D02*
X142922857Y-113525714D01*
X142922857Y-113620952D02*
X142970476Y-113573333D01*
X143065714Y-113525714D01*
X143208571Y-113525714D01*
X143303809Y-113573333D01*
X143351428Y-113668571D01*
X143351428Y-114192380D01*
X143351428Y-113668571D02*
X143399047Y-113573333D01*
X143494285Y-113525714D01*
X143637142Y-113525714D01*
X143732380Y-113573333D01*
X143780000Y-113668571D01*
X143780000Y-114192380D01*
X144256190Y-114192380D02*
X144256190Y-113525714D01*
X144256190Y-113192380D02*
X144208571Y-113240000D01*
X144256190Y-113287619D01*
X144303809Y-113240000D01*
X144256190Y-113192380D01*
X144256190Y-113287619D01*
X145160952Y-114144761D02*
X145065714Y-114192380D01*
X144875238Y-114192380D01*
X144780000Y-114144761D01*
X144732380Y-114097142D01*
X144684761Y-114001904D01*
X144684761Y-113716190D01*
X144732380Y-113620952D01*
X144780000Y-113573333D01*
X144875238Y-113525714D01*
X145065714Y-113525714D01*
X145160952Y-113573333D01*
X145589523Y-114192380D02*
X145589523Y-113525714D01*
X145589523Y-113716190D02*
X145637142Y-113620952D01*
X145684761Y-113573333D01*
X145780000Y-113525714D01*
X145875238Y-113525714D01*
X146351428Y-114192380D02*
X146256190Y-114144761D01*
X146208571Y-114097142D01*
X146160952Y-114001904D01*
X146160952Y-113716190D01*
X146208571Y-113620952D01*
X146256190Y-113573333D01*
X146351428Y-113525714D01*
X146494285Y-113525714D01*
X146589523Y-113573333D01*
X146637142Y-113620952D01*
X146684761Y-113716190D01*
X146684761Y-114001904D01*
X146637142Y-114097142D01*
X146589523Y-114144761D01*
X146494285Y-114192380D01*
X146351428Y-114192380D01*
%TO.C,C2*%
X131913333Y-110847142D02*
X131865714Y-110894761D01*
X131722857Y-110942380D01*
X131627619Y-110942380D01*
X131484761Y-110894761D01*
X131389523Y-110799523D01*
X131341904Y-110704285D01*
X131294285Y-110513809D01*
X131294285Y-110370952D01*
X131341904Y-110180476D01*
X131389523Y-110085238D01*
X131484761Y-109990000D01*
X131627619Y-109942380D01*
X131722857Y-109942380D01*
X131865714Y-109990000D01*
X131913333Y-110037619D01*
X132294285Y-110037619D02*
X132341904Y-109990000D01*
X132437142Y-109942380D01*
X132675238Y-109942380D01*
X132770476Y-109990000D01*
X132818095Y-110037619D01*
X132865714Y-110132857D01*
X132865714Y-110228095D01*
X132818095Y-110370952D01*
X132246666Y-110942380D01*
X132865714Y-110942380D01*
D11*
%TO.C,U1*%
X143299977Y-104120000D02*
X141349977Y-104120000D01*
X143299977Y-104120000D02*
X145249977Y-104120000D01*
X143299977Y-109240000D02*
X141349977Y-109240000D01*
X143299977Y-109240000D02*
X146749977Y-109240000D01*
%TO.C,SW1*%
X119310000Y-92270000D02*
X119310000Y-96290000D01*
X119310000Y-96290000D02*
X129530000Y-96290000D01*
X129530000Y-96290000D02*
X129530000Y-92270000D01*
X129530000Y-92270000D02*
X119310000Y-92270000D01*
X119310000Y-93980000D02*
X119810000Y-93980000D01*
X119810000Y-93980000D02*
X119810000Y-92770000D01*
X119810000Y-92770000D02*
X129030000Y-92770000D01*
X129030000Y-92770000D02*
X129030000Y-93980000D01*
X129030000Y-93980000D02*
X129530000Y-93980000D01*
X119310000Y-94790000D02*
X120310000Y-94790000D01*
X120310000Y-94790000D02*
X120310000Y-96290000D01*
X129530000Y-94790000D02*
X128530000Y-94790000D01*
X128530000Y-94790000D02*
X128530000Y-96290000D01*
X119010000Y-94090000D02*
X119010000Y-96590000D01*
X119010000Y-96590000D02*
X121510000Y-96590000D01*
%TO.C,Q1*%
X128960000Y-99800000D02*
X128960000Y-103400000D01*
X133410001Y-101600000D02*
G75*
G03*
X128971522Y-99761522I-2600001J0D01*
G01*
X128971522Y-103438478D02*
G75*
G03*
X133410000Y-101600000I1838478J1838478D01*
G01*
%TO.C,K1*%
X136610000Y-100180000D02*
X136600000Y-101180000D01*
X135110000Y-100130000D02*
X135100000Y-101180000D01*
X134610000Y-100130000D02*
X135110000Y-100130000D01*
X137750000Y-100180000D02*
X136600000Y-100180000D01*
X140300000Y-100170000D02*
X139100000Y-100180000D01*
X142900000Y-100180000D02*
X141700000Y-100180000D01*
X144800000Y-100170000D02*
X144300000Y-100170000D01*
X144800000Y-93470000D02*
X144800000Y-100170000D01*
X144300000Y-93470000D02*
X144800000Y-93470000D01*
X141700000Y-93480000D02*
X142850000Y-93480000D01*
X139100000Y-93480000D02*
X140300000Y-93470000D01*
X136600000Y-93480000D02*
X137750000Y-93480000D01*
X134600000Y-93470000D02*
X135100000Y-93470000D01*
X134610000Y-100130000D02*
X134600000Y-93470000D01*
%TO.C,Power*%
X119350000Y-111630000D02*
X119350000Y-105570000D01*
X119350000Y-105570000D02*
X122160000Y-105570000D01*
X126760000Y-105570000D02*
X129570000Y-105570000D01*
X129570000Y-105570000D02*
X129570000Y-111630000D01*
X129570000Y-115730000D02*
X129570000Y-118790000D01*
X129570000Y-118790000D02*
X119350000Y-118790000D01*
X119350000Y-118790000D02*
X119350000Y-115730000D01*
X123460000Y-105380000D02*
X125460000Y-105380000D01*
%TO.C,EXTPWR*%
X147550000Y-108297870D02*
X147550000Y-106297870D01*
X148800000Y-108297870D02*
X147550000Y-108297870D01*
X154550000Y-98917870D02*
X154550000Y-99667870D01*
X150250000Y-98917870D02*
X154550000Y-98917870D01*
X150250000Y-99667870D02*
X150250000Y-98917870D01*
X149900000Y-99667870D02*
X150250000Y-99667870D01*
X149900000Y-99167870D02*
X149900000Y-99667870D01*
X148900000Y-98917870D02*
X149900000Y-99167870D01*
X148900000Y-101917870D02*
X148900000Y-98917870D01*
X149900000Y-101667870D02*
X148900000Y-101917870D01*
X149900000Y-101167870D02*
X149900000Y-101667870D01*
X150250000Y-101167870D02*
X149900000Y-101167870D01*
X150250000Y-101917870D02*
X150250000Y-101167870D01*
X154550000Y-101917870D02*
X150250000Y-101917870D01*
X154550000Y-101167870D02*
X154550000Y-101917870D01*
X154550000Y-103997870D02*
X154550000Y-104747870D01*
X150250000Y-103997870D02*
X154550000Y-103997870D01*
X150250000Y-104747870D02*
X150250000Y-103997870D01*
X149900000Y-104747870D02*
X150250000Y-104747870D01*
X149900000Y-104247870D02*
X149900000Y-104747870D01*
X148900000Y-103997870D02*
X149900000Y-104247870D01*
X148900000Y-106997870D02*
X148900000Y-103997870D01*
X149900000Y-106747870D02*
X148900000Y-106997870D01*
X149900000Y-106247870D02*
X149900000Y-106747870D01*
X150250000Y-106247870D02*
X149900000Y-106247870D01*
X150250000Y-106997870D02*
X150250000Y-106247870D01*
X154550000Y-106997870D02*
X150250000Y-106997870D01*
X154550000Y-106247870D02*
X154550000Y-106997870D01*
X149190000Y-112707870D02*
X155410000Y-112707870D01*
X149190000Y-107907870D02*
X149190000Y-112707870D01*
X147940000Y-107907870D02*
X149190000Y-107907870D01*
X147940000Y-98007870D02*
X147940000Y-107907870D01*
X149190000Y-98007870D02*
X147940000Y-98007870D01*
X149190000Y-93207870D02*
X149190000Y-98007870D01*
X155410000Y-93207870D02*
X149190000Y-93207870D01*
X155410000Y-112707870D02*
X155410000Y-93207870D01*
X154300000Y-95917870D02*
G75*
G03*
X154300000Y-95917870I-1900000J0D01*
G01*
X154300000Y-109997870D02*
G75*
G03*
X154300000Y-109997870I-1900000J0D01*
G01*
X154549845Y-99668223D02*
G75*
G03*
X154550000Y-101167870I1700155J-749647D01*
G01*
X154549845Y-104748223D02*
G75*
G03*
X154550000Y-106247870I1700155J-749647D01*
G01*
%TO.C,micro*%
X139670000Y-114830000D02*
X139670000Y-118850000D01*
X139670000Y-118850000D02*
X149890000Y-118850000D01*
X149890000Y-118850000D02*
X149890000Y-114830000D01*
X149890000Y-114830000D02*
X139670000Y-114830000D01*
X139670000Y-116540000D02*
X140170000Y-116540000D01*
X140170000Y-116540000D02*
X140170000Y-115330000D01*
X140170000Y-115330000D02*
X149390000Y-115330000D01*
X149390000Y-115330000D02*
X149390000Y-116540000D01*
X149390000Y-116540000D02*
X149890000Y-116540000D01*
X139670000Y-117350000D02*
X140670000Y-117350000D01*
X140670000Y-117350000D02*
X140670000Y-118850000D01*
X149890000Y-117350000D02*
X148890000Y-117350000D01*
X148890000Y-117350000D02*
X148890000Y-118850000D01*
X139370000Y-116650000D02*
X139370000Y-119150000D01*
X139370000Y-119150000D02*
X141870000Y-119150000D01*
%TO.C,C2*%
X138650000Y-109930000D02*
X136950000Y-109930000D01*
X133130000Y-109930000D02*
X134830000Y-109930000D01*
X133130000Y-114385563D02*
X133130000Y-109930000D01*
X138650000Y-114385563D02*
X138650000Y-109930000D01*
X137585563Y-115450000D02*
X136950000Y-115450000D01*
X134194437Y-115450000D02*
X134830000Y-115450000D01*
X134194437Y-115450000D02*
X133130000Y-114385563D01*
X137585563Y-115450000D02*
X138650000Y-114385563D01*
X134205000Y-116315000D02*
X134205000Y-115690000D01*
X133892500Y-116002500D02*
X134517500Y-116002500D01*
%TD*%
M02*
