%FSLAX45Y45*%
G04 Gerber Fmt 4.5, Leading zero omitted, Abs format (unit mm)*
G04 Created by KiCad (PCBNEW 6.0.0+dfsg1-2) date 2022-01-17 02:07:58*
%MOMM*%
%LPD*%
G01*
G04 APERTURE LIST*
%TA.AperFunction,Profile*%
%ADD10C,0.050000*%
%TD*%
%ADD11C,0.200000*%
%ADD12C,0.040000*%
%ADD13C,0.075000*%
%ADD14C,0.095000*%
%ADD15C,0.100000*%
%ADD16C,0.120000*%
G04 APERTURE END LIST*
D10*
X11684000Y-12065000D02*
X11684000Y-8890000D01*
X15621000Y-12065000D02*
X11684000Y-12065000D01*
X15621000Y-8890000D02*
X15621000Y-12065000D01*
X11684000Y-8890000D02*
X15621000Y-8890000D01*
D11*
D12*
X13061000Y-9886000D02*
X13101000Y-9926000D01*
X13101000Y-9886000D02*
X13061000Y-9926000D01*
X13315000Y-10902000D02*
X13355000Y-10942000D01*
X13355000Y-10902000D02*
X13315000Y-10942000D01*
X13442000Y-9505000D02*
X13482000Y-9545000D01*
X13482000Y-9505000D02*
X13442000Y-9545000D01*
X13569000Y-9759000D02*
X13609000Y-9799000D01*
X13609000Y-9759000D02*
X13569000Y-9799000D01*
X13823000Y-10521000D02*
X13863000Y-10561000D01*
X13863000Y-10521000D02*
X13823000Y-10561000D01*
X14077000Y-11029000D02*
X14117000Y-11069000D01*
X14117000Y-11029000D02*
X14077000Y-11069000D01*
X14331000Y-10521000D02*
X14371000Y-10561000D01*
X14371000Y-10521000D02*
X14331000Y-10561000D01*
X14331000Y-10648000D02*
X14371000Y-10688000D01*
X14371000Y-10648000D02*
X14331000Y-10688000D01*
X14458000Y-10222951D02*
X14498000Y-10262951D01*
X14498000Y-10222951D02*
X14458000Y-10262951D01*
X14585000Y-11029000D02*
X14625000Y-11069000D01*
X14625000Y-11029000D02*
X14585000Y-11069000D01*
X14712000Y-9505000D02*
X14752000Y-9545000D01*
X14752000Y-9505000D02*
X14712000Y-9545000D01*
X14839000Y-10648000D02*
X14879000Y-10688000D01*
X14879000Y-10648000D02*
X14839000Y-10688000D01*
X14839000Y-11283000D02*
X14879000Y-11323000D01*
X14879000Y-11283000D02*
X14839000Y-11323000D01*
D13*
X13118500Y-10033000D02*
G75*
G03*
X13118500Y-10033000I-37500J0D01*
G01*
X13118500Y-10160000D02*
G75*
G03*
X13118500Y-10160000I-37500J0D01*
G01*
X13118500Y-10287000D02*
G75*
G03*
X13118500Y-10287000I-37500J0D01*
G01*
D14*
X12192000Y-9350500D02*
X12192000Y-9445500D01*
X12144500Y-9398000D02*
X12239500Y-9398000D01*
X12442000Y-9350500D02*
X12442000Y-9445500D01*
X12394500Y-9398000D02*
X12489500Y-9398000D01*
X12692000Y-9350500D02*
X12692000Y-9445500D01*
X12644500Y-9398000D02*
X12739500Y-9398000D01*
X14228000Y-11606500D02*
X14228000Y-11701500D01*
X14180500Y-11654000D02*
X14275500Y-11654000D01*
X14478000Y-11606500D02*
X14478000Y-11701500D01*
X14430500Y-11654000D02*
X14525500Y-11654000D01*
X14728000Y-11606500D02*
X14728000Y-11701500D01*
X14680500Y-11654000D02*
X14775500Y-11654000D01*
D15*
X12031356Y-11403356D02*
X12031356Y-11332644D01*
X11960644Y-11332644D01*
X11960644Y-11403356D01*
X12031356Y-11403356D01*
D11*
X11956000Y-11293000D02*
X11956000Y-11443000D01*
X12036000Y-11293000D02*
X12036000Y-11443000D01*
X11956000Y-11443000D02*
G75*
G03*
X12036000Y-11443000I40000J0D01*
G01*
X12036000Y-11293000D02*
G75*
G03*
X11956000Y-11293000I-40000J0D01*
G01*
D15*
X12481356Y-10703356D02*
X12481356Y-10632644D01*
X12410644Y-10632644D01*
X12410644Y-10703356D01*
X12481356Y-10703356D01*
D11*
X12346000Y-10708000D02*
X12546000Y-10708000D01*
X12346000Y-10628000D02*
X12546000Y-10628000D01*
X12546000Y-10708000D02*
G75*
G03*
X12546000Y-10628000I0J40000D01*
G01*
X12346000Y-10628000D02*
G75*
G03*
X12346000Y-10708000I0J-40000D01*
G01*
D15*
X12481356Y-11303356D02*
X12481356Y-11232644D01*
X12410644Y-11232644D01*
X12410644Y-11303356D01*
X12481356Y-11303356D01*
D11*
X12381000Y-11308000D02*
X12511000Y-11308000D01*
X12381000Y-11228000D02*
X12511000Y-11228000D01*
X12511000Y-11308000D02*
G75*
G03*
X12511000Y-11228000I0J40000D01*
G01*
X12381000Y-11228000D02*
G75*
G03*
X12381000Y-11308000I0J-40000D01*
G01*
D15*
X12931356Y-11403356D02*
X12931356Y-11332644D01*
X12860644Y-11332644D01*
X12860644Y-11403356D01*
X12931356Y-11403356D01*
D11*
X12856000Y-11293000D02*
X12856000Y-11443000D01*
X12936000Y-11293000D02*
X12936000Y-11443000D01*
X12856000Y-11443000D02*
G75*
G03*
X12936000Y-11443000I40000J0D01*
G01*
X12936000Y-11293000D02*
G75*
G03*
X12856000Y-11293000I-40000J0D01*
G01*
D16*
X15240000Y-10101787D02*
X15300000Y-10041787D01*
X15240000Y-9981787D01*
X15180000Y-10041787D01*
X15240000Y-10101787D01*
X15240000Y-10609787D02*
X15300000Y-10549787D01*
X15240000Y-10489787D01*
X15180000Y-10549787D01*
X15240000Y-10609787D01*
D11*
X11939119Y-12377976D02*
X11939119Y-12177976D01*
X11986738Y-12177976D01*
X12015309Y-12187500D01*
X12034357Y-12206548D01*
X12043881Y-12225595D01*
X12053405Y-12263690D01*
X12053405Y-12292262D01*
X12043881Y-12330357D01*
X12034357Y-12349405D01*
X12015309Y-12368452D01*
X11986738Y-12377976D01*
X11939119Y-12377976D01*
X12139119Y-12377976D02*
X12139119Y-12244643D01*
X12139119Y-12282738D02*
X12148643Y-12263690D01*
X12158167Y-12254167D01*
X12177214Y-12244643D01*
X12196262Y-12244643D01*
X12262928Y-12377976D02*
X12262928Y-12244643D01*
X12262928Y-12177976D02*
X12253405Y-12187500D01*
X12262928Y-12197024D01*
X12272452Y-12187500D01*
X12262928Y-12177976D01*
X12262928Y-12197024D01*
X12386738Y-12377976D02*
X12367690Y-12368452D01*
X12358167Y-12349405D01*
X12358167Y-12177976D01*
X12491500Y-12377976D02*
X12472452Y-12368452D01*
X12462928Y-12349405D01*
X12462928Y-12177976D01*
X12720071Y-12377976D02*
X12720071Y-12177976D01*
X12786738Y-12320833D01*
X12853405Y-12177976D01*
X12853405Y-12377976D01*
X13034357Y-12377976D02*
X13034357Y-12273214D01*
X13024833Y-12254167D01*
X13005786Y-12244643D01*
X12967690Y-12244643D01*
X12948643Y-12254167D01*
X13034357Y-12368452D02*
X13015309Y-12377976D01*
X12967690Y-12377976D01*
X12948643Y-12368452D01*
X12939119Y-12349405D01*
X12939119Y-12330357D01*
X12948643Y-12311309D01*
X12967690Y-12301786D01*
X13015309Y-12301786D01*
X13034357Y-12292262D01*
X13129595Y-12244643D02*
X13129595Y-12444643D01*
X13129595Y-12254167D02*
X13148643Y-12244643D01*
X13186738Y-12244643D01*
X13205786Y-12254167D01*
X13215309Y-12263690D01*
X13224833Y-12282738D01*
X13224833Y-12339881D01*
X13215309Y-12358928D01*
X13205786Y-12368452D01*
X13186738Y-12377976D01*
X13148643Y-12377976D01*
X13129595Y-12368452D01*
X13310548Y-12358928D02*
X13320071Y-12368452D01*
X13310548Y-12377976D01*
X13301024Y-12368452D01*
X13310548Y-12358928D01*
X13310548Y-12377976D01*
X13310548Y-12254167D02*
X13320071Y-12263690D01*
X13310548Y-12273214D01*
X13301024Y-12263690D01*
X13310548Y-12254167D01*
X13310548Y-12273214D01*
D12*
X11641500Y-12687500D02*
X11681500Y-12727500D01*
X11681500Y-12687500D02*
X11641500Y-12727500D01*
D11*
X11977214Y-12597976D02*
X11996262Y-12597976D01*
X12015309Y-12607500D01*
X12024833Y-12617024D01*
X12034357Y-12636071D01*
X12043881Y-12674167D01*
X12043881Y-12721786D01*
X12034357Y-12759881D01*
X12024833Y-12778928D01*
X12015309Y-12788452D01*
X11996262Y-12797976D01*
X11977214Y-12797976D01*
X11958167Y-12788452D01*
X11948643Y-12778928D01*
X11939119Y-12759881D01*
X11929595Y-12721786D01*
X11929595Y-12674167D01*
X11939119Y-12636071D01*
X11948643Y-12617024D01*
X11958167Y-12607500D01*
X11977214Y-12597976D01*
X12129595Y-12778928D02*
X12139119Y-12788452D01*
X12129595Y-12797976D01*
X12120071Y-12788452D01*
X12129595Y-12778928D01*
X12129595Y-12797976D01*
X12310548Y-12664643D02*
X12310548Y-12797976D01*
X12262928Y-12588452D02*
X12215309Y-12731309D01*
X12339119Y-12731309D01*
X12453405Y-12597976D02*
X12472452Y-12597976D01*
X12491500Y-12607500D01*
X12501024Y-12617024D01*
X12510548Y-12636071D01*
X12520071Y-12674167D01*
X12520071Y-12721786D01*
X12510548Y-12759881D01*
X12501024Y-12778928D01*
X12491500Y-12788452D01*
X12472452Y-12797976D01*
X12453405Y-12797976D01*
X12434357Y-12788452D01*
X12424833Y-12778928D01*
X12415309Y-12759881D01*
X12405786Y-12721786D01*
X12405786Y-12674167D01*
X12415309Y-12636071D01*
X12424833Y-12617024D01*
X12434357Y-12607500D01*
X12453405Y-12597976D01*
X12643881Y-12597976D02*
X12662928Y-12597976D01*
X12681976Y-12607500D01*
X12691500Y-12617024D01*
X12701024Y-12636071D01*
X12710548Y-12674167D01*
X12710548Y-12721786D01*
X12701024Y-12759881D01*
X12691500Y-12778928D01*
X12681976Y-12788452D01*
X12662928Y-12797976D01*
X12643881Y-12797976D01*
X12624833Y-12788452D01*
X12615309Y-12778928D01*
X12605786Y-12759881D01*
X12596262Y-12721786D01*
X12596262Y-12674167D01*
X12605786Y-12636071D01*
X12615309Y-12617024D01*
X12624833Y-12607500D01*
X12643881Y-12597976D01*
X12796262Y-12797976D02*
X12796262Y-12664643D01*
X12796262Y-12683690D02*
X12805786Y-12674167D01*
X12824833Y-12664643D01*
X12853405Y-12664643D01*
X12872452Y-12674167D01*
X12881976Y-12693214D01*
X12881976Y-12797976D01*
X12881976Y-12693214D02*
X12891500Y-12674167D01*
X12910548Y-12664643D01*
X12939119Y-12664643D01*
X12958167Y-12674167D01*
X12967690Y-12693214D01*
X12967690Y-12797976D01*
X13062928Y-12797976D02*
X13062928Y-12664643D01*
X13062928Y-12683690D02*
X13072452Y-12674167D01*
X13091500Y-12664643D01*
X13120071Y-12664643D01*
X13139119Y-12674167D01*
X13148643Y-12693214D01*
X13148643Y-12797976D01*
X13148643Y-12693214D02*
X13158167Y-12674167D01*
X13177214Y-12664643D01*
X13205786Y-12664643D01*
X13224833Y-12674167D01*
X13234357Y-12693214D01*
X13234357Y-12797976D01*
X13624833Y-12588452D02*
X13453405Y-12845595D01*
X13881976Y-12597976D02*
X13901024Y-12597976D01*
X13920071Y-12607500D01*
X13929595Y-12617024D01*
X13939119Y-12636071D01*
X13948643Y-12674167D01*
X13948643Y-12721786D01*
X13939119Y-12759881D01*
X13929595Y-12778928D01*
X13920071Y-12788452D01*
X13901024Y-12797976D01*
X13881976Y-12797976D01*
X13862928Y-12788452D01*
X13853405Y-12778928D01*
X13843881Y-12759881D01*
X13834357Y-12721786D01*
X13834357Y-12674167D01*
X13843881Y-12636071D01*
X13853405Y-12617024D01*
X13862928Y-12607500D01*
X13881976Y-12597976D01*
X14034357Y-12778928D02*
X14043881Y-12788452D01*
X14034357Y-12797976D01*
X14024833Y-12788452D01*
X14034357Y-12778928D01*
X14034357Y-12797976D01*
X14167690Y-12597976D02*
X14186738Y-12597976D01*
X14205786Y-12607500D01*
X14215309Y-12617024D01*
X14224833Y-12636071D01*
X14234357Y-12674167D01*
X14234357Y-12721786D01*
X14224833Y-12759881D01*
X14215309Y-12778928D01*
X14205786Y-12788452D01*
X14186738Y-12797976D01*
X14167690Y-12797976D01*
X14148643Y-12788452D01*
X14139119Y-12778928D01*
X14129595Y-12759881D01*
X14120071Y-12721786D01*
X14120071Y-12674167D01*
X14129595Y-12636071D01*
X14139119Y-12617024D01*
X14148643Y-12607500D01*
X14167690Y-12597976D01*
X14424833Y-12797976D02*
X14310548Y-12797976D01*
X14367690Y-12797976D02*
X14367690Y-12597976D01*
X14348643Y-12626548D01*
X14329595Y-12645595D01*
X14310548Y-12655119D01*
X14605786Y-12597976D02*
X14510548Y-12597976D01*
X14501024Y-12693214D01*
X14510548Y-12683690D01*
X14529595Y-12674167D01*
X14577214Y-12674167D01*
X14596262Y-12683690D01*
X14605786Y-12693214D01*
X14615309Y-12712262D01*
X14615309Y-12759881D01*
X14605786Y-12778928D01*
X14596262Y-12788452D01*
X14577214Y-12797976D01*
X14529595Y-12797976D01*
X14510548Y-12788452D01*
X14501024Y-12778928D01*
X14681976Y-12597976D02*
X14815309Y-12597976D01*
X14729595Y-12797976D01*
X14881976Y-12597976D02*
X14881976Y-12636071D01*
X14958167Y-12597976D02*
X14958167Y-12636071D01*
X15253405Y-12874167D02*
X15243881Y-12864643D01*
X15224833Y-12836071D01*
X15215309Y-12817024D01*
X15205786Y-12788452D01*
X15196262Y-12740833D01*
X15196262Y-12702738D01*
X15205786Y-12655119D01*
X15215309Y-12626548D01*
X15224833Y-12607500D01*
X15243881Y-12578928D01*
X15253405Y-12569405D01*
X15434357Y-12797976D02*
X15320071Y-12797976D01*
X15377214Y-12797976D02*
X15377214Y-12597976D01*
X15358167Y-12626548D01*
X15339119Y-12645595D01*
X15320071Y-12655119D01*
X15501024Y-12597976D02*
X15624833Y-12597976D01*
X15558167Y-12674167D01*
X15586738Y-12674167D01*
X15605786Y-12683690D01*
X15615309Y-12693214D01*
X15624833Y-12712262D01*
X15624833Y-12759881D01*
X15615309Y-12778928D01*
X15605786Y-12788452D01*
X15586738Y-12797976D01*
X15529595Y-12797976D01*
X15510548Y-12788452D01*
X15501024Y-12778928D01*
X15862928Y-12797976D02*
X15862928Y-12597976D01*
X15948643Y-12797976D02*
X15948643Y-12693214D01*
X15939119Y-12674167D01*
X15920071Y-12664643D01*
X15891500Y-12664643D01*
X15872452Y-12674167D01*
X15862928Y-12683690D01*
X16072452Y-12797976D02*
X16053405Y-12788452D01*
X16043881Y-12778928D01*
X16034357Y-12759881D01*
X16034357Y-12702738D01*
X16043881Y-12683690D01*
X16053405Y-12674167D01*
X16072452Y-12664643D01*
X16101024Y-12664643D01*
X16120071Y-12674167D01*
X16129595Y-12683690D01*
X16139119Y-12702738D01*
X16139119Y-12759881D01*
X16129595Y-12778928D01*
X16120071Y-12788452D01*
X16101024Y-12797976D01*
X16072452Y-12797976D01*
X16253405Y-12797976D02*
X16234357Y-12788452D01*
X16224833Y-12769405D01*
X16224833Y-12597976D01*
X16405786Y-12788452D02*
X16386738Y-12797976D01*
X16348643Y-12797976D01*
X16329595Y-12788452D01*
X16320071Y-12769405D01*
X16320071Y-12693214D01*
X16329595Y-12674167D01*
X16348643Y-12664643D01*
X16386738Y-12664643D01*
X16405786Y-12674167D01*
X16415309Y-12693214D01*
X16415309Y-12712262D01*
X16320071Y-12731309D01*
X16491500Y-12788452D02*
X16510548Y-12797976D01*
X16548643Y-12797976D01*
X16567690Y-12788452D01*
X16577214Y-12769405D01*
X16577214Y-12759881D01*
X16567690Y-12740833D01*
X16548643Y-12731309D01*
X16520071Y-12731309D01*
X16501024Y-12721786D01*
X16491500Y-12702738D01*
X16491500Y-12693214D01*
X16501024Y-12674167D01*
X16520071Y-12664643D01*
X16548643Y-12664643D01*
X16567690Y-12674167D01*
X16643881Y-12874167D02*
X16653405Y-12864643D01*
X16672452Y-12836071D01*
X16681976Y-12817024D01*
X16691500Y-12788452D01*
X16701024Y-12740833D01*
X16701024Y-12702738D01*
X16691500Y-12655119D01*
X16681976Y-12626548D01*
X16672452Y-12607500D01*
X16653405Y-12578928D01*
X16643881Y-12569405D01*
D13*
X11681500Y-12971500D02*
G75*
G03*
X11681500Y-12971500I-37500J0D01*
G01*
D11*
X11977214Y-12861976D02*
X11996262Y-12861976D01*
X12015309Y-12871500D01*
X12024833Y-12881024D01*
X12034357Y-12900071D01*
X12043881Y-12938167D01*
X12043881Y-12985786D01*
X12034357Y-13023881D01*
X12024833Y-13042928D01*
X12015309Y-13052452D01*
X11996262Y-13061976D01*
X11977214Y-13061976D01*
X11958167Y-13052452D01*
X11948643Y-13042928D01*
X11939119Y-13023881D01*
X11929595Y-12985786D01*
X11929595Y-12938167D01*
X11939119Y-12900071D01*
X11948643Y-12881024D01*
X11958167Y-12871500D01*
X11977214Y-12861976D01*
X12129595Y-13042928D02*
X12139119Y-13052452D01*
X12129595Y-13061976D01*
X12120071Y-13052452D01*
X12129595Y-13042928D01*
X12129595Y-13061976D01*
X12205786Y-12861976D02*
X12339119Y-12861976D01*
X12253405Y-13061976D01*
X12510548Y-12861976D02*
X12415309Y-12861976D01*
X12405786Y-12957214D01*
X12415309Y-12947690D01*
X12434357Y-12938167D01*
X12481976Y-12938167D01*
X12501024Y-12947690D01*
X12510548Y-12957214D01*
X12520071Y-12976262D01*
X12520071Y-13023881D01*
X12510548Y-13042928D01*
X12501024Y-13052452D01*
X12481976Y-13061976D01*
X12434357Y-13061976D01*
X12415309Y-13052452D01*
X12405786Y-13042928D01*
X12643881Y-12861976D02*
X12662928Y-12861976D01*
X12681976Y-12871500D01*
X12691500Y-12881024D01*
X12701024Y-12900071D01*
X12710548Y-12938167D01*
X12710548Y-12985786D01*
X12701024Y-13023881D01*
X12691500Y-13042928D01*
X12681976Y-13052452D01*
X12662928Y-13061976D01*
X12643881Y-13061976D01*
X12624833Y-13052452D01*
X12615309Y-13042928D01*
X12605786Y-13023881D01*
X12596262Y-12985786D01*
X12596262Y-12938167D01*
X12605786Y-12900071D01*
X12615309Y-12881024D01*
X12624833Y-12871500D01*
X12643881Y-12861976D01*
X12796262Y-13061976D02*
X12796262Y-12928643D01*
X12796262Y-12947690D02*
X12805786Y-12938167D01*
X12824833Y-12928643D01*
X12853405Y-12928643D01*
X12872452Y-12938167D01*
X12881976Y-12957214D01*
X12881976Y-13061976D01*
X12881976Y-12957214D02*
X12891500Y-12938167D01*
X12910548Y-12928643D01*
X12939119Y-12928643D01*
X12958167Y-12938167D01*
X12967690Y-12957214D01*
X12967690Y-13061976D01*
X13062928Y-13061976D02*
X13062928Y-12928643D01*
X13062928Y-12947690D02*
X13072452Y-12938167D01*
X13091500Y-12928643D01*
X13120071Y-12928643D01*
X13139119Y-12938167D01*
X13148643Y-12957214D01*
X13148643Y-13061976D01*
X13148643Y-12957214D02*
X13158167Y-12938167D01*
X13177214Y-12928643D01*
X13205786Y-12928643D01*
X13224833Y-12938167D01*
X13234357Y-12957214D01*
X13234357Y-13061976D01*
X13624833Y-12852452D02*
X13453405Y-13109595D01*
X13881976Y-12861976D02*
X13901024Y-12861976D01*
X13920071Y-12871500D01*
X13929595Y-12881024D01*
X13939119Y-12900071D01*
X13948643Y-12938167D01*
X13948643Y-12985786D01*
X13939119Y-13023881D01*
X13929595Y-13042928D01*
X13920071Y-13052452D01*
X13901024Y-13061976D01*
X13881976Y-13061976D01*
X13862928Y-13052452D01*
X13853405Y-13042928D01*
X13843881Y-13023881D01*
X13834357Y-12985786D01*
X13834357Y-12938167D01*
X13843881Y-12900071D01*
X13853405Y-12881024D01*
X13862928Y-12871500D01*
X13881976Y-12861976D01*
X14034357Y-13042928D02*
X14043881Y-13052452D01*
X14034357Y-13061976D01*
X14024833Y-13052452D01*
X14034357Y-13042928D01*
X14034357Y-13061976D01*
X14167690Y-12861976D02*
X14186738Y-12861976D01*
X14205786Y-12871500D01*
X14215309Y-12881024D01*
X14224833Y-12900071D01*
X14234357Y-12938167D01*
X14234357Y-12985786D01*
X14224833Y-13023881D01*
X14215309Y-13042928D01*
X14205786Y-13052452D01*
X14186738Y-13061976D01*
X14167690Y-13061976D01*
X14148643Y-13052452D01*
X14139119Y-13042928D01*
X14129595Y-13023881D01*
X14120071Y-12985786D01*
X14120071Y-12938167D01*
X14129595Y-12900071D01*
X14139119Y-12881024D01*
X14148643Y-12871500D01*
X14167690Y-12861976D01*
X14310548Y-12881024D02*
X14320071Y-12871500D01*
X14339119Y-12861976D01*
X14386738Y-12861976D01*
X14405786Y-12871500D01*
X14415309Y-12881024D01*
X14424833Y-12900071D01*
X14424833Y-12919119D01*
X14415309Y-12947690D01*
X14301024Y-13061976D01*
X14424833Y-13061976D01*
X14520071Y-13061976D02*
X14558167Y-13061976D01*
X14577214Y-13052452D01*
X14586738Y-13042928D01*
X14605786Y-13014357D01*
X14615309Y-12976262D01*
X14615309Y-12900071D01*
X14605786Y-12881024D01*
X14596262Y-12871500D01*
X14577214Y-12861976D01*
X14539119Y-12861976D01*
X14520071Y-12871500D01*
X14510548Y-12881024D01*
X14501024Y-12900071D01*
X14501024Y-12947690D01*
X14510548Y-12966738D01*
X14520071Y-12976262D01*
X14539119Y-12985786D01*
X14577214Y-12985786D01*
X14596262Y-12976262D01*
X14605786Y-12966738D01*
X14615309Y-12947690D01*
X14796262Y-12861976D02*
X14701024Y-12861976D01*
X14691500Y-12957214D01*
X14701024Y-12947690D01*
X14720071Y-12938167D01*
X14767690Y-12938167D01*
X14786738Y-12947690D01*
X14796262Y-12957214D01*
X14805786Y-12976262D01*
X14805786Y-13023881D01*
X14796262Y-13042928D01*
X14786738Y-13052452D01*
X14767690Y-13061976D01*
X14720071Y-13061976D01*
X14701024Y-13052452D01*
X14691500Y-13042928D01*
X14881976Y-12861976D02*
X14881976Y-12900071D01*
X14958167Y-12861976D02*
X14958167Y-12900071D01*
X15253405Y-13138167D02*
X15243881Y-13128643D01*
X15224833Y-13100071D01*
X15215309Y-13081024D01*
X15205786Y-13052452D01*
X15196262Y-13004833D01*
X15196262Y-12966738D01*
X15205786Y-12919119D01*
X15215309Y-12890548D01*
X15224833Y-12871500D01*
X15243881Y-12842928D01*
X15253405Y-12833405D01*
X15310548Y-12861976D02*
X15434357Y-12861976D01*
X15367690Y-12938167D01*
X15396262Y-12938167D01*
X15415309Y-12947690D01*
X15424833Y-12957214D01*
X15434357Y-12976262D01*
X15434357Y-13023881D01*
X15424833Y-13042928D01*
X15415309Y-13052452D01*
X15396262Y-13061976D01*
X15339119Y-13061976D01*
X15320071Y-13052452D01*
X15310548Y-13042928D01*
X15672452Y-13061976D02*
X15672452Y-12861976D01*
X15758167Y-13061976D02*
X15758167Y-12957214D01*
X15748643Y-12938167D01*
X15729595Y-12928643D01*
X15701024Y-12928643D01*
X15681976Y-12938167D01*
X15672452Y-12947690D01*
X15881976Y-13061976D02*
X15862928Y-13052452D01*
X15853405Y-13042928D01*
X15843881Y-13023881D01*
X15843881Y-12966738D01*
X15853405Y-12947690D01*
X15862928Y-12938167D01*
X15881976Y-12928643D01*
X15910548Y-12928643D01*
X15929595Y-12938167D01*
X15939119Y-12947690D01*
X15948643Y-12966738D01*
X15948643Y-13023881D01*
X15939119Y-13042928D01*
X15929595Y-13052452D01*
X15910548Y-13061976D01*
X15881976Y-13061976D01*
X16062928Y-13061976D02*
X16043881Y-13052452D01*
X16034357Y-13033405D01*
X16034357Y-12861976D01*
X16215309Y-13052452D02*
X16196262Y-13061976D01*
X16158167Y-13061976D01*
X16139119Y-13052452D01*
X16129595Y-13033405D01*
X16129595Y-12957214D01*
X16139119Y-12938167D01*
X16158167Y-12928643D01*
X16196262Y-12928643D01*
X16215309Y-12938167D01*
X16224833Y-12957214D01*
X16224833Y-12976262D01*
X16129595Y-12995309D01*
X16301024Y-13052452D02*
X16320071Y-13061976D01*
X16358167Y-13061976D01*
X16377214Y-13052452D01*
X16386738Y-13033405D01*
X16386738Y-13023881D01*
X16377214Y-13004833D01*
X16358167Y-12995309D01*
X16329595Y-12995309D01*
X16310548Y-12985786D01*
X16301024Y-12966738D01*
X16301024Y-12957214D01*
X16310548Y-12938167D01*
X16329595Y-12928643D01*
X16358167Y-12928643D01*
X16377214Y-12938167D01*
X16453405Y-13138167D02*
X16462928Y-13128643D01*
X16481976Y-13100071D01*
X16491500Y-13081024D01*
X16501024Y-13052452D01*
X16510548Y-13004833D01*
X16510548Y-12966738D01*
X16501024Y-12919119D01*
X16491500Y-12890548D01*
X16481976Y-12871500D01*
X16462928Y-12842928D01*
X16453405Y-12833405D01*
D14*
X11634000Y-13188000D02*
X11634000Y-13283000D01*
X11586500Y-13235500D02*
X11681500Y-13235500D01*
D11*
X11977214Y-13125976D02*
X11996262Y-13125976D01*
X12015309Y-13135500D01*
X12024833Y-13145024D01*
X12034357Y-13164071D01*
X12043881Y-13202167D01*
X12043881Y-13249786D01*
X12034357Y-13287881D01*
X12024833Y-13306928D01*
X12015309Y-13316452D01*
X11996262Y-13325976D01*
X11977214Y-13325976D01*
X11958167Y-13316452D01*
X11948643Y-13306928D01*
X11939119Y-13287881D01*
X11929595Y-13249786D01*
X11929595Y-13202167D01*
X11939119Y-13164071D01*
X11948643Y-13145024D01*
X11958167Y-13135500D01*
X11977214Y-13125976D01*
X12129595Y-13306928D02*
X12139119Y-13316452D01*
X12129595Y-13325976D01*
X12120071Y-13316452D01*
X12129595Y-13306928D01*
X12129595Y-13325976D01*
X12234357Y-13325976D02*
X12272452Y-13325976D01*
X12291500Y-13316452D01*
X12301024Y-13306928D01*
X12320071Y-13278357D01*
X12329595Y-13240262D01*
X12329595Y-13164071D01*
X12320071Y-13145024D01*
X12310548Y-13135500D01*
X12291500Y-13125976D01*
X12253405Y-13125976D01*
X12234357Y-13135500D01*
X12224833Y-13145024D01*
X12215309Y-13164071D01*
X12215309Y-13211690D01*
X12224833Y-13230738D01*
X12234357Y-13240262D01*
X12253405Y-13249786D01*
X12291500Y-13249786D01*
X12310548Y-13240262D01*
X12320071Y-13230738D01*
X12329595Y-13211690D01*
X12510548Y-13125976D02*
X12415309Y-13125976D01*
X12405786Y-13221214D01*
X12415309Y-13211690D01*
X12434357Y-13202167D01*
X12481976Y-13202167D01*
X12501024Y-13211690D01*
X12510548Y-13221214D01*
X12520071Y-13240262D01*
X12520071Y-13287881D01*
X12510548Y-13306928D01*
X12501024Y-13316452D01*
X12481976Y-13325976D01*
X12434357Y-13325976D01*
X12415309Y-13316452D01*
X12405786Y-13306928D01*
X12643881Y-13125976D02*
X12662928Y-13125976D01*
X12681976Y-13135500D01*
X12691500Y-13145024D01*
X12701024Y-13164071D01*
X12710548Y-13202167D01*
X12710548Y-13249786D01*
X12701024Y-13287881D01*
X12691500Y-13306928D01*
X12681976Y-13316452D01*
X12662928Y-13325976D01*
X12643881Y-13325976D01*
X12624833Y-13316452D01*
X12615309Y-13306928D01*
X12605786Y-13287881D01*
X12596262Y-13249786D01*
X12596262Y-13202167D01*
X12605786Y-13164071D01*
X12615309Y-13145024D01*
X12624833Y-13135500D01*
X12643881Y-13125976D01*
X12796262Y-13325976D02*
X12796262Y-13192643D01*
X12796262Y-13211690D02*
X12805786Y-13202167D01*
X12824833Y-13192643D01*
X12853405Y-13192643D01*
X12872452Y-13202167D01*
X12881976Y-13221214D01*
X12881976Y-13325976D01*
X12881976Y-13221214D02*
X12891500Y-13202167D01*
X12910548Y-13192643D01*
X12939119Y-13192643D01*
X12958167Y-13202167D01*
X12967690Y-13221214D01*
X12967690Y-13325976D01*
X13062928Y-13325976D02*
X13062928Y-13192643D01*
X13062928Y-13211690D02*
X13072452Y-13202167D01*
X13091500Y-13192643D01*
X13120071Y-13192643D01*
X13139119Y-13202167D01*
X13148643Y-13221214D01*
X13148643Y-13325976D01*
X13148643Y-13221214D02*
X13158167Y-13202167D01*
X13177214Y-13192643D01*
X13205786Y-13192643D01*
X13224833Y-13202167D01*
X13234357Y-13221214D01*
X13234357Y-13325976D01*
X13624833Y-13116452D02*
X13453405Y-13373595D01*
X13881976Y-13125976D02*
X13901024Y-13125976D01*
X13920071Y-13135500D01*
X13929595Y-13145024D01*
X13939119Y-13164071D01*
X13948643Y-13202167D01*
X13948643Y-13249786D01*
X13939119Y-13287881D01*
X13929595Y-13306928D01*
X13920071Y-13316452D01*
X13901024Y-13325976D01*
X13881976Y-13325976D01*
X13862928Y-13316452D01*
X13853405Y-13306928D01*
X13843881Y-13287881D01*
X13834357Y-13249786D01*
X13834357Y-13202167D01*
X13843881Y-13164071D01*
X13853405Y-13145024D01*
X13862928Y-13135500D01*
X13881976Y-13125976D01*
X14034357Y-13306928D02*
X14043881Y-13316452D01*
X14034357Y-13325976D01*
X14024833Y-13316452D01*
X14034357Y-13306928D01*
X14034357Y-13325976D01*
X14167690Y-13125976D02*
X14186738Y-13125976D01*
X14205786Y-13135500D01*
X14215309Y-13145024D01*
X14224833Y-13164071D01*
X14234357Y-13202167D01*
X14234357Y-13249786D01*
X14224833Y-13287881D01*
X14215309Y-13306928D01*
X14205786Y-13316452D01*
X14186738Y-13325976D01*
X14167690Y-13325976D01*
X14148643Y-13316452D01*
X14139119Y-13306928D01*
X14129595Y-13287881D01*
X14120071Y-13249786D01*
X14120071Y-13202167D01*
X14129595Y-13164071D01*
X14139119Y-13145024D01*
X14148643Y-13135500D01*
X14167690Y-13125976D01*
X14301024Y-13125976D02*
X14424833Y-13125976D01*
X14358167Y-13202167D01*
X14386738Y-13202167D01*
X14405786Y-13211690D01*
X14415309Y-13221214D01*
X14424833Y-13240262D01*
X14424833Y-13287881D01*
X14415309Y-13306928D01*
X14405786Y-13316452D01*
X14386738Y-13325976D01*
X14329595Y-13325976D01*
X14310548Y-13316452D01*
X14301024Y-13306928D01*
X14491500Y-13125976D02*
X14624833Y-13125976D01*
X14539119Y-13325976D01*
X14786738Y-13192643D02*
X14786738Y-13325976D01*
X14739119Y-13116452D02*
X14691500Y-13259309D01*
X14815309Y-13259309D01*
X14881976Y-13125976D02*
X14881976Y-13164071D01*
X14958167Y-13125976D02*
X14958167Y-13164071D01*
X15253405Y-13402167D02*
X15243881Y-13392643D01*
X15224833Y-13364071D01*
X15215309Y-13345024D01*
X15205786Y-13316452D01*
X15196262Y-13268833D01*
X15196262Y-13230738D01*
X15205786Y-13183119D01*
X15215309Y-13154548D01*
X15224833Y-13135500D01*
X15243881Y-13106928D01*
X15253405Y-13097405D01*
X15415309Y-13125976D02*
X15377214Y-13125976D01*
X15358167Y-13135500D01*
X15348643Y-13145024D01*
X15329595Y-13173595D01*
X15320071Y-13211690D01*
X15320071Y-13287881D01*
X15329595Y-13306928D01*
X15339119Y-13316452D01*
X15358167Y-13325976D01*
X15396262Y-13325976D01*
X15415309Y-13316452D01*
X15424833Y-13306928D01*
X15434357Y-13287881D01*
X15434357Y-13240262D01*
X15424833Y-13221214D01*
X15415309Y-13211690D01*
X15396262Y-13202167D01*
X15358167Y-13202167D01*
X15339119Y-13211690D01*
X15329595Y-13221214D01*
X15320071Y-13240262D01*
X15672452Y-13325976D02*
X15672452Y-13125976D01*
X15758167Y-13325976D02*
X15758167Y-13221214D01*
X15748643Y-13202167D01*
X15729595Y-13192643D01*
X15701024Y-13192643D01*
X15681976Y-13202167D01*
X15672452Y-13211690D01*
X15881976Y-13325976D02*
X15862928Y-13316452D01*
X15853405Y-13306928D01*
X15843881Y-13287881D01*
X15843881Y-13230738D01*
X15853405Y-13211690D01*
X15862928Y-13202167D01*
X15881976Y-13192643D01*
X15910548Y-13192643D01*
X15929595Y-13202167D01*
X15939119Y-13211690D01*
X15948643Y-13230738D01*
X15948643Y-13287881D01*
X15939119Y-13306928D01*
X15929595Y-13316452D01*
X15910548Y-13325976D01*
X15881976Y-13325976D01*
X16062928Y-13325976D02*
X16043881Y-13316452D01*
X16034357Y-13297405D01*
X16034357Y-13125976D01*
X16215309Y-13316452D02*
X16196262Y-13325976D01*
X16158167Y-13325976D01*
X16139119Y-13316452D01*
X16129595Y-13297405D01*
X16129595Y-13221214D01*
X16139119Y-13202167D01*
X16158167Y-13192643D01*
X16196262Y-13192643D01*
X16215309Y-13202167D01*
X16224833Y-13221214D01*
X16224833Y-13240262D01*
X16129595Y-13259309D01*
X16301024Y-13316452D02*
X16320071Y-13325976D01*
X16358167Y-13325976D01*
X16377214Y-13316452D01*
X16386738Y-13297405D01*
X16386738Y-13287881D01*
X16377214Y-13268833D01*
X16358167Y-13259309D01*
X16329595Y-13259309D01*
X16310548Y-13249786D01*
X16301024Y-13230738D01*
X16301024Y-13221214D01*
X16310548Y-13202167D01*
X16329595Y-13192643D01*
X16358167Y-13192643D01*
X16377214Y-13202167D01*
X16453405Y-13402167D02*
X16462928Y-13392643D01*
X16481976Y-13364071D01*
X16491500Y-13345024D01*
X16501024Y-13316452D01*
X16510548Y-13268833D01*
X16510548Y-13230738D01*
X16501024Y-13183119D01*
X16491500Y-13154548D01*
X16481976Y-13135500D01*
X16462928Y-13106928D01*
X16453405Y-13097405D01*
D15*
X11666856Y-13534856D02*
X11666856Y-13464144D01*
X11596144Y-13464144D01*
X11596144Y-13534856D01*
X11666856Y-13534856D01*
D11*
X12043881Y-13589976D02*
X11929595Y-13589976D01*
X11986738Y-13589976D02*
X11986738Y-13389976D01*
X11967690Y-13418548D01*
X11948643Y-13437595D01*
X11929595Y-13447119D01*
X12129595Y-13570928D02*
X12139119Y-13580452D01*
X12129595Y-13589976D01*
X12120071Y-13580452D01*
X12129595Y-13570928D01*
X12129595Y-13589976D01*
X12262928Y-13389976D02*
X12281976Y-13389976D01*
X12301024Y-13399500D01*
X12310548Y-13409024D01*
X12320071Y-13428071D01*
X12329595Y-13466167D01*
X12329595Y-13513786D01*
X12320071Y-13551881D01*
X12310548Y-13570928D01*
X12301024Y-13580452D01*
X12281976Y-13589976D01*
X12262928Y-13589976D01*
X12243881Y-13580452D01*
X12234357Y-13570928D01*
X12224833Y-13551881D01*
X12215309Y-13513786D01*
X12215309Y-13466167D01*
X12224833Y-13428071D01*
X12234357Y-13409024D01*
X12243881Y-13399500D01*
X12262928Y-13389976D01*
X12453405Y-13389976D02*
X12472452Y-13389976D01*
X12491500Y-13399500D01*
X12501024Y-13409024D01*
X12510548Y-13428071D01*
X12520071Y-13466167D01*
X12520071Y-13513786D01*
X12510548Y-13551881D01*
X12501024Y-13570928D01*
X12491500Y-13580452D01*
X12472452Y-13589976D01*
X12453405Y-13589976D01*
X12434357Y-13580452D01*
X12424833Y-13570928D01*
X12415309Y-13551881D01*
X12405786Y-13513786D01*
X12405786Y-13466167D01*
X12415309Y-13428071D01*
X12424833Y-13409024D01*
X12434357Y-13399500D01*
X12453405Y-13389976D01*
X12643881Y-13389976D02*
X12662928Y-13389976D01*
X12681976Y-13399500D01*
X12691500Y-13409024D01*
X12701024Y-13428071D01*
X12710548Y-13466167D01*
X12710548Y-13513786D01*
X12701024Y-13551881D01*
X12691500Y-13570928D01*
X12681976Y-13580452D01*
X12662928Y-13589976D01*
X12643881Y-13589976D01*
X12624833Y-13580452D01*
X12615309Y-13570928D01*
X12605786Y-13551881D01*
X12596262Y-13513786D01*
X12596262Y-13466167D01*
X12605786Y-13428071D01*
X12615309Y-13409024D01*
X12624833Y-13399500D01*
X12643881Y-13389976D01*
X12796262Y-13589976D02*
X12796262Y-13456643D01*
X12796262Y-13475690D02*
X12805786Y-13466167D01*
X12824833Y-13456643D01*
X12853405Y-13456643D01*
X12872452Y-13466167D01*
X12881976Y-13485214D01*
X12881976Y-13589976D01*
X12881976Y-13485214D02*
X12891500Y-13466167D01*
X12910548Y-13456643D01*
X12939119Y-13456643D01*
X12958167Y-13466167D01*
X12967690Y-13485214D01*
X12967690Y-13589976D01*
X13062928Y-13589976D02*
X13062928Y-13456643D01*
X13062928Y-13475690D02*
X13072452Y-13466167D01*
X13091500Y-13456643D01*
X13120071Y-13456643D01*
X13139119Y-13466167D01*
X13148643Y-13485214D01*
X13148643Y-13589976D01*
X13148643Y-13485214D02*
X13158167Y-13466167D01*
X13177214Y-13456643D01*
X13205786Y-13456643D01*
X13224833Y-13466167D01*
X13234357Y-13485214D01*
X13234357Y-13589976D01*
X13624833Y-13380452D02*
X13453405Y-13637595D01*
X13881976Y-13389976D02*
X13901024Y-13389976D01*
X13920071Y-13399500D01*
X13929595Y-13409024D01*
X13939119Y-13428071D01*
X13948643Y-13466167D01*
X13948643Y-13513786D01*
X13939119Y-13551881D01*
X13929595Y-13570928D01*
X13920071Y-13580452D01*
X13901024Y-13589976D01*
X13881976Y-13589976D01*
X13862928Y-13580452D01*
X13853405Y-13570928D01*
X13843881Y-13551881D01*
X13834357Y-13513786D01*
X13834357Y-13466167D01*
X13843881Y-13428071D01*
X13853405Y-13409024D01*
X13862928Y-13399500D01*
X13881976Y-13389976D01*
X14034357Y-13570928D02*
X14043881Y-13580452D01*
X14034357Y-13589976D01*
X14024833Y-13580452D01*
X14034357Y-13570928D01*
X14034357Y-13589976D01*
X14167690Y-13389976D02*
X14186738Y-13389976D01*
X14205786Y-13399500D01*
X14215309Y-13409024D01*
X14224833Y-13428071D01*
X14234357Y-13466167D01*
X14234357Y-13513786D01*
X14224833Y-13551881D01*
X14215309Y-13570928D01*
X14205786Y-13580452D01*
X14186738Y-13589976D01*
X14167690Y-13589976D01*
X14148643Y-13580452D01*
X14139119Y-13570928D01*
X14129595Y-13551881D01*
X14120071Y-13513786D01*
X14120071Y-13466167D01*
X14129595Y-13428071D01*
X14139119Y-13409024D01*
X14148643Y-13399500D01*
X14167690Y-13389976D01*
X14301024Y-13389976D02*
X14424833Y-13389976D01*
X14358167Y-13466167D01*
X14386738Y-13466167D01*
X14405786Y-13475690D01*
X14415309Y-13485214D01*
X14424833Y-13504262D01*
X14424833Y-13551881D01*
X14415309Y-13570928D01*
X14405786Y-13580452D01*
X14386738Y-13589976D01*
X14329595Y-13589976D01*
X14310548Y-13580452D01*
X14301024Y-13570928D01*
X14520071Y-13589976D02*
X14558167Y-13589976D01*
X14577214Y-13580452D01*
X14586738Y-13570928D01*
X14605786Y-13542357D01*
X14615309Y-13504262D01*
X14615309Y-13428071D01*
X14605786Y-13409024D01*
X14596262Y-13399500D01*
X14577214Y-13389976D01*
X14539119Y-13389976D01*
X14520071Y-13399500D01*
X14510548Y-13409024D01*
X14501024Y-13428071D01*
X14501024Y-13475690D01*
X14510548Y-13494738D01*
X14520071Y-13504262D01*
X14539119Y-13513786D01*
X14577214Y-13513786D01*
X14596262Y-13504262D01*
X14605786Y-13494738D01*
X14615309Y-13475690D01*
X14786738Y-13456643D02*
X14786738Y-13589976D01*
X14739119Y-13380452D02*
X14691500Y-13523309D01*
X14815309Y-13523309D01*
X14881976Y-13389976D02*
X14881976Y-13428071D01*
X14958167Y-13389976D02*
X14958167Y-13428071D01*
X15253405Y-13666167D02*
X15243881Y-13656643D01*
X15224833Y-13628071D01*
X15215309Y-13609024D01*
X15205786Y-13580452D01*
X15196262Y-13532833D01*
X15196262Y-13494738D01*
X15205786Y-13447119D01*
X15215309Y-13418548D01*
X15224833Y-13399500D01*
X15243881Y-13370928D01*
X15253405Y-13361405D01*
X15367690Y-13389976D02*
X15386738Y-13389976D01*
X15405786Y-13399500D01*
X15415309Y-13409024D01*
X15424833Y-13428071D01*
X15434357Y-13466167D01*
X15434357Y-13513786D01*
X15424833Y-13551881D01*
X15415309Y-13570928D01*
X15405786Y-13580452D01*
X15386738Y-13589976D01*
X15367690Y-13589976D01*
X15348643Y-13580452D01*
X15339119Y-13570928D01*
X15329595Y-13551881D01*
X15320071Y-13513786D01*
X15320071Y-13466167D01*
X15329595Y-13428071D01*
X15339119Y-13409024D01*
X15348643Y-13399500D01*
X15367690Y-13389976D01*
X15672452Y-13589976D02*
X15672452Y-13389976D01*
X15758167Y-13589976D02*
X15758167Y-13485214D01*
X15748643Y-13466167D01*
X15729595Y-13456643D01*
X15701024Y-13456643D01*
X15681976Y-13466167D01*
X15672452Y-13475690D01*
X15881976Y-13589976D02*
X15862928Y-13580452D01*
X15853405Y-13570928D01*
X15843881Y-13551881D01*
X15843881Y-13494738D01*
X15853405Y-13475690D01*
X15862928Y-13466167D01*
X15881976Y-13456643D01*
X15910548Y-13456643D01*
X15929595Y-13466167D01*
X15939119Y-13475690D01*
X15948643Y-13494738D01*
X15948643Y-13551881D01*
X15939119Y-13570928D01*
X15929595Y-13580452D01*
X15910548Y-13589976D01*
X15881976Y-13589976D01*
X16062928Y-13589976D02*
X16043881Y-13580452D01*
X16034357Y-13561405D01*
X16034357Y-13389976D01*
X16215309Y-13580452D02*
X16196262Y-13589976D01*
X16158167Y-13589976D01*
X16139119Y-13580452D01*
X16129595Y-13561405D01*
X16129595Y-13485214D01*
X16139119Y-13466167D01*
X16158167Y-13456643D01*
X16196262Y-13456643D01*
X16215309Y-13466167D01*
X16224833Y-13485214D01*
X16224833Y-13504262D01*
X16129595Y-13523309D01*
X16301024Y-13580452D02*
X16320071Y-13589976D01*
X16358167Y-13589976D01*
X16377214Y-13580452D01*
X16386738Y-13561405D01*
X16386738Y-13551881D01*
X16377214Y-13532833D01*
X16358167Y-13523309D01*
X16329595Y-13523309D01*
X16310548Y-13513786D01*
X16301024Y-13494738D01*
X16301024Y-13485214D01*
X16310548Y-13466167D01*
X16329595Y-13456643D01*
X16358167Y-13456643D01*
X16377214Y-13466167D01*
X16624833Y-13513786D02*
X16777214Y-13513786D01*
X16701024Y-13589976D02*
X16701024Y-13437595D01*
X17110548Y-13456643D02*
X17110548Y-13589976D01*
X17062929Y-13380452D02*
X17015310Y-13523309D01*
X17139119Y-13523309D01*
X17358167Y-13580452D02*
X17377214Y-13589976D01*
X17415310Y-13589976D01*
X17434357Y-13580452D01*
X17443881Y-13561405D01*
X17443881Y-13551881D01*
X17434357Y-13532833D01*
X17415310Y-13523309D01*
X17386738Y-13523309D01*
X17367690Y-13513786D01*
X17358167Y-13494738D01*
X17358167Y-13485214D01*
X17367690Y-13466167D01*
X17386738Y-13456643D01*
X17415310Y-13456643D01*
X17434357Y-13466167D01*
X17558167Y-13589976D02*
X17539119Y-13580452D01*
X17529595Y-13561405D01*
X17529595Y-13389976D01*
X17662929Y-13589976D02*
X17643881Y-13580452D01*
X17634357Y-13570928D01*
X17624833Y-13551881D01*
X17624833Y-13494738D01*
X17634357Y-13475690D01*
X17643881Y-13466167D01*
X17662929Y-13456643D01*
X17691500Y-13456643D01*
X17710548Y-13466167D01*
X17720071Y-13475690D01*
X17729595Y-13494738D01*
X17729595Y-13551881D01*
X17720071Y-13570928D01*
X17710548Y-13580452D01*
X17691500Y-13589976D01*
X17662929Y-13589976D01*
X17786738Y-13456643D02*
X17862929Y-13456643D01*
X17815310Y-13389976D02*
X17815310Y-13561405D01*
X17824833Y-13580452D01*
X17843881Y-13589976D01*
X17862929Y-13589976D01*
X17920071Y-13580452D02*
X17939119Y-13589976D01*
X17977214Y-13589976D01*
X17996262Y-13580452D01*
X18005786Y-13561405D01*
X18005786Y-13551881D01*
X17996262Y-13532833D01*
X17977214Y-13523309D01*
X17948643Y-13523309D01*
X17929595Y-13513786D01*
X17920071Y-13494738D01*
X17920071Y-13485214D01*
X17929595Y-13466167D01*
X17948643Y-13456643D01*
X17977214Y-13456643D01*
X17996262Y-13466167D01*
X18072452Y-13666167D02*
X18081976Y-13656643D01*
X18101024Y-13628071D01*
X18110548Y-13609024D01*
X18120071Y-13580452D01*
X18129595Y-13532833D01*
X18129595Y-13494738D01*
X18120071Y-13447119D01*
X18110548Y-13418548D01*
X18101024Y-13399500D01*
X18081976Y-13370928D01*
X18072452Y-13361405D01*
D16*
X11621500Y-13823500D02*
X11681500Y-13763500D01*
X11621500Y-13703500D01*
X11561500Y-13763500D01*
X11621500Y-13823500D01*
D11*
X12043881Y-13853976D02*
X11929595Y-13853976D01*
X11986738Y-13853976D02*
X11986738Y-13653976D01*
X11967690Y-13682548D01*
X11948643Y-13701595D01*
X11929595Y-13711119D01*
X12129595Y-13834928D02*
X12139119Y-13844452D01*
X12129595Y-13853976D01*
X12120071Y-13844452D01*
X12129595Y-13834928D01*
X12129595Y-13853976D01*
X12215309Y-13673024D02*
X12224833Y-13663500D01*
X12243881Y-13653976D01*
X12291500Y-13653976D01*
X12310548Y-13663500D01*
X12320071Y-13673024D01*
X12329595Y-13692071D01*
X12329595Y-13711119D01*
X12320071Y-13739690D01*
X12205786Y-13853976D01*
X12329595Y-13853976D01*
X12453405Y-13653976D02*
X12472452Y-13653976D01*
X12491500Y-13663500D01*
X12501024Y-13673024D01*
X12510548Y-13692071D01*
X12520071Y-13730167D01*
X12520071Y-13777786D01*
X12510548Y-13815881D01*
X12501024Y-13834928D01*
X12491500Y-13844452D01*
X12472452Y-13853976D01*
X12453405Y-13853976D01*
X12434357Y-13844452D01*
X12424833Y-13834928D01*
X12415309Y-13815881D01*
X12405786Y-13777786D01*
X12405786Y-13730167D01*
X12415309Y-13692071D01*
X12424833Y-13673024D01*
X12434357Y-13663500D01*
X12453405Y-13653976D01*
X12643881Y-13653976D02*
X12662928Y-13653976D01*
X12681976Y-13663500D01*
X12691500Y-13673024D01*
X12701024Y-13692071D01*
X12710548Y-13730167D01*
X12710548Y-13777786D01*
X12701024Y-13815881D01*
X12691500Y-13834928D01*
X12681976Y-13844452D01*
X12662928Y-13853976D01*
X12643881Y-13853976D01*
X12624833Y-13844452D01*
X12615309Y-13834928D01*
X12605786Y-13815881D01*
X12596262Y-13777786D01*
X12596262Y-13730167D01*
X12605786Y-13692071D01*
X12615309Y-13673024D01*
X12624833Y-13663500D01*
X12643881Y-13653976D01*
X12796262Y-13853976D02*
X12796262Y-13720643D01*
X12796262Y-13739690D02*
X12805786Y-13730167D01*
X12824833Y-13720643D01*
X12853405Y-13720643D01*
X12872452Y-13730167D01*
X12881976Y-13749214D01*
X12881976Y-13853976D01*
X12881976Y-13749214D02*
X12891500Y-13730167D01*
X12910548Y-13720643D01*
X12939119Y-13720643D01*
X12958167Y-13730167D01*
X12967690Y-13749214D01*
X12967690Y-13853976D01*
X13062928Y-13853976D02*
X13062928Y-13720643D01*
X13062928Y-13739690D02*
X13072452Y-13730167D01*
X13091500Y-13720643D01*
X13120071Y-13720643D01*
X13139119Y-13730167D01*
X13148643Y-13749214D01*
X13148643Y-13853976D01*
X13148643Y-13749214D02*
X13158167Y-13730167D01*
X13177214Y-13720643D01*
X13205786Y-13720643D01*
X13224833Y-13730167D01*
X13234357Y-13749214D01*
X13234357Y-13853976D01*
X13624833Y-13644452D02*
X13453405Y-13901595D01*
X13881976Y-13653976D02*
X13901024Y-13653976D01*
X13920071Y-13663500D01*
X13929595Y-13673024D01*
X13939119Y-13692071D01*
X13948643Y-13730167D01*
X13948643Y-13777786D01*
X13939119Y-13815881D01*
X13929595Y-13834928D01*
X13920071Y-13844452D01*
X13901024Y-13853976D01*
X13881976Y-13853976D01*
X13862928Y-13844452D01*
X13853405Y-13834928D01*
X13843881Y-13815881D01*
X13834357Y-13777786D01*
X13834357Y-13730167D01*
X13843881Y-13692071D01*
X13853405Y-13673024D01*
X13862928Y-13663500D01*
X13881976Y-13653976D01*
X14034357Y-13834928D02*
X14043881Y-13844452D01*
X14034357Y-13853976D01*
X14024833Y-13844452D01*
X14034357Y-13834928D01*
X14034357Y-13853976D01*
X14167690Y-13653976D02*
X14186738Y-13653976D01*
X14205786Y-13663500D01*
X14215309Y-13673024D01*
X14224833Y-13692071D01*
X14234357Y-13730167D01*
X14234357Y-13777786D01*
X14224833Y-13815881D01*
X14215309Y-13834928D01*
X14205786Y-13844452D01*
X14186738Y-13853976D01*
X14167690Y-13853976D01*
X14148643Y-13844452D01*
X14139119Y-13834928D01*
X14129595Y-13815881D01*
X14120071Y-13777786D01*
X14120071Y-13730167D01*
X14129595Y-13692071D01*
X14139119Y-13673024D01*
X14148643Y-13663500D01*
X14167690Y-13653976D01*
X14405786Y-13720643D02*
X14405786Y-13853976D01*
X14358167Y-13644452D02*
X14310548Y-13787309D01*
X14434357Y-13787309D01*
X14491500Y-13653976D02*
X14624833Y-13653976D01*
X14539119Y-13853976D01*
X14691500Y-13673024D02*
X14701024Y-13663500D01*
X14720071Y-13653976D01*
X14767690Y-13653976D01*
X14786738Y-13663500D01*
X14796262Y-13673024D01*
X14805786Y-13692071D01*
X14805786Y-13711119D01*
X14796262Y-13739690D01*
X14681976Y-13853976D01*
X14805786Y-13853976D01*
X14881976Y-13653976D02*
X14881976Y-13692071D01*
X14958167Y-13653976D02*
X14958167Y-13692071D01*
X15253405Y-13930167D02*
X15243881Y-13920643D01*
X15224833Y-13892071D01*
X15215309Y-13873024D01*
X15205786Y-13844452D01*
X15196262Y-13796833D01*
X15196262Y-13758738D01*
X15205786Y-13711119D01*
X15215309Y-13682548D01*
X15224833Y-13663500D01*
X15243881Y-13634928D01*
X15253405Y-13625405D01*
X15320071Y-13673024D02*
X15329595Y-13663500D01*
X15348643Y-13653976D01*
X15396262Y-13653976D01*
X15415309Y-13663500D01*
X15424833Y-13673024D01*
X15434357Y-13692071D01*
X15434357Y-13711119D01*
X15424833Y-13739690D01*
X15310548Y-13853976D01*
X15434357Y-13853976D01*
X15672452Y-13853976D02*
X15672452Y-13653976D01*
X15758167Y-13853976D02*
X15758167Y-13749214D01*
X15748643Y-13730167D01*
X15729595Y-13720643D01*
X15701024Y-13720643D01*
X15681976Y-13730167D01*
X15672452Y-13739690D01*
X15881976Y-13853976D02*
X15862928Y-13844452D01*
X15853405Y-13834928D01*
X15843881Y-13815881D01*
X15843881Y-13758738D01*
X15853405Y-13739690D01*
X15862928Y-13730167D01*
X15881976Y-13720643D01*
X15910548Y-13720643D01*
X15929595Y-13730167D01*
X15939119Y-13739690D01*
X15948643Y-13758738D01*
X15948643Y-13815881D01*
X15939119Y-13834928D01*
X15929595Y-13844452D01*
X15910548Y-13853976D01*
X15881976Y-13853976D01*
X16062928Y-13853976D02*
X16043881Y-13844452D01*
X16034357Y-13825405D01*
X16034357Y-13653976D01*
X16215309Y-13844452D02*
X16196262Y-13853976D01*
X16158167Y-13853976D01*
X16139119Y-13844452D01*
X16129595Y-13825405D01*
X16129595Y-13749214D01*
X16139119Y-13730167D01*
X16158167Y-13720643D01*
X16196262Y-13720643D01*
X16215309Y-13730167D01*
X16224833Y-13749214D01*
X16224833Y-13768262D01*
X16129595Y-13787309D01*
X16301024Y-13844452D02*
X16320071Y-13853976D01*
X16358167Y-13853976D01*
X16377214Y-13844452D01*
X16386738Y-13825405D01*
X16386738Y-13815881D01*
X16377214Y-13796833D01*
X16358167Y-13787309D01*
X16329595Y-13787309D01*
X16310548Y-13777786D01*
X16301024Y-13758738D01*
X16301024Y-13749214D01*
X16310548Y-13730167D01*
X16329595Y-13720643D01*
X16358167Y-13720643D01*
X16377214Y-13730167D01*
X16453405Y-13930167D02*
X16462928Y-13920643D01*
X16481976Y-13892071D01*
X16491500Y-13873024D01*
X16501024Y-13844452D01*
X16510548Y-13796833D01*
X16510548Y-13758738D01*
X16501024Y-13711119D01*
X16491500Y-13682548D01*
X16481976Y-13663500D01*
X16462928Y-13634928D01*
X16453405Y-13625405D01*
M02*
