EESchema Schematic File Version 4
EELAYER 30 0
EELAYER END
$Descr A4 11693 8268
encoding utf-8
Sheet 1 1
Title "clap relay"
Date "2021-11-14"
Rev "0.0.0"
Comp ""
Comment1 "https://gitlab.com/goblinrieur/clap-relay"
Comment2 "goblinrieur@gmail.com"
Comment3 "https://www.youtube.com/watch?v=ZKulTYAQn8Y"
Comment4 "thonain youtube channel"
$EndDescr
$Comp
L Timer:NE555D U1
U 1 1 619170E8
P 6000 3900
F 0 "U1" H 6200 4450 50  0000 C CNN
F 1 "NE555D" H 6200 4300 50  0000 C CNN
F 2 "Package_SO:SOIC-8_3.9x4.9mm_P1.27mm" H 6850 3500 50  0001 C CNN
F 3 "http://www.ti.com/lit/ds/symlink/ne555.pdf" H 6850 3500 50  0001 C CNN
	1    6000 3900
	1    0    0    -1  
$EndComp
$Comp
L Device:R_US R2
U 1 1 619186DB
P 7150 4100
F 0 "R2" V 7355 4100 50  0000 C CNN
F 1 "70k" V 7264 4100 50  0000 C CNN
F 2 "Resistor_SMD:R_0805_2012Metric" V 7190 4090 50  0001 C CNN
F 3 "~" H 7150 4100 50  0001 C CNN
	1    7150 4100
	0    -1   -1   0   
$EndComp
$Comp
L power:+5V #PWR08
U 1 1 61918FD0
P 7500 4000
F 0 "#PWR08" H 7500 3850 50  0001 C CNN
F 1 "+5V" H 7515 4173 50  0000 C CNN
F 2 "" H 7500 4000 50  0001 C CNN
F 3 "" H 7500 4000 50  0001 C CNN
	1    7500 4000
	1    0    0    -1  
$EndComp
$Comp
L Device:C_Polarized_Small_US C2
U 1 1 61919585
P 6750 4350
F 0 "C2" H 6841 4396 50  0000 L CNN
F 1 "100µ" H 6841 4305 50  0000 L CNN
F 2 "Capacitor_SMD:CP_Elec_5x3" H 6750 4350 50  0001 C CNN
F 3 "~" H 6750 4350 50  0001 C CNN
	1    6750 4350
	1    0    0    -1  
$EndComp
Wire Wire Line
	7500 4000 7500 4100
Wire Wire Line
	7500 4100 7300 4100
Wire Wire Line
	7000 4100 6750 4100
Wire Wire Line
	6500 3900 6700 3900
Wire Wire Line
	6700 3900 6700 4100
Connection ~ 6700 4100
Wire Wire Line
	6700 4100 6500 4100
Wire Wire Line
	6750 4100 6750 4250
Connection ~ 6750 4100
Wire Wire Line
	6750 4100 6700 4100
$Comp
L power:GND #PWR07
U 1 1 6191A0F7
P 6750 4600
F 0 "#PWR07" H 6750 4350 50  0001 C CNN
F 1 "GND" H 6755 4427 50  0000 C CNN
F 2 "" H 6750 4600 50  0001 C CNN
F 3 "" H 6750 4600 50  0001 C CNN
	1    6750 4600
	1    0    0    -1  
$EndComp
Wire Wire Line
	6750 4450 6750 4600
$Comp
L power:GND #PWR06
U 1 1 6191A4DB
P 6000 4600
F 0 "#PWR06" H 6000 4350 50  0001 C CNN
F 1 "GND" H 6005 4427 50  0000 C CNN
F 2 "" H 6000 4600 50  0001 C CNN
F 3 "" H 6000 4600 50  0001 C CNN
	1    6000 4600
	1    0    0    -1  
$EndComp
Wire Wire Line
	6000 4300 6000 4600
$Comp
L Device:C_Small C1
U 1 1 6191AD5A
P 5000 4350
F 0 "C1" H 5092 4396 50  0000 L CNN
F 1 "100n" H 5092 4305 50  0000 L CNN
F 2 "Capacitor_SMD:C_0603_1608Metric" H 5000 4350 50  0001 C CNN
F 3 "~" H 5000 4350 50  0001 C CNN
	1    5000 4350
	1    0    0    -1  
$EndComp
$Comp
L power:GND #PWR03
U 1 1 6191B10F
P 5000 4600
F 0 "#PWR03" H 5000 4350 50  0001 C CNN
F 1 "GND" H 5005 4427 50  0000 C CNN
F 2 "" H 5000 4600 50  0001 C CNN
F 3 "" H 5000 4600 50  0001 C CNN
	1    5000 4600
	1    0    0    -1  
$EndComp
Wire Wire Line
	5500 3900 5000 3900
Wire Wire Line
	5000 3900 5000 4250
Wire Wire Line
	5000 4450 5000 4600
$Comp
L power:+5V #PWR04
U 1 1 6191B767
P 5250 4050
F 0 "#PWR04" H 5250 3900 50  0001 C CNN
F 1 "+5V" H 5350 3950 50  0000 C CNN
F 2 "" H 5250 4050 50  0001 C CNN
F 3 "" H 5250 4050 50  0001 C CNN
	1    5250 4050
	1    0    0    -1  
$EndComp
Wire Wire Line
	5250 4050 5250 4100
Wire Wire Line
	5250 4100 5500 4100
$Comp
L power:+5V #PWR05
U 1 1 6191C318
P 6000 3400
F 0 "#PWR05" H 6000 3250 50  0001 C CNN
F 1 "+5V" H 6015 3573 50  0000 C CNN
F 2 "" H 6000 3400 50  0001 C CNN
F 3 "" H 6000 3400 50  0001 C CNN
	1    6000 3400
	1    0    0    -1  
$EndComp
Wire Wire Line
	6000 3400 6000 3500
$Comp
L Connector:Conn_01x03_Female J1
U 1 1 6191CDE9
P 4900 3050
F 0 "J1" V 4838 2862 50  0000 R CNN
F 1 "micro" V 4747 2862 50  0000 R CNN
F 2 "Connector_JST:JST_EH_B3B-EH-A_1x03_P2.50mm_Vertical" H 4900 3050 50  0001 C CNN
F 3 "~" H 4900 3050 50  0001 C CNN
	1    4900 3050
	0    -1   -1   0   
$EndComp
Wire Wire Line
	5000 3250 5000 3700
Wire Wire Line
	5000 3700 5500 3700
$Comp
L power:GND #PWR02
U 1 1 6191DC40
P 4900 3600
F 0 "#PWR02" H 4900 3350 50  0001 C CNN
F 1 "GND" H 4905 3427 50  0000 C CNN
F 2 "" H 4900 3600 50  0001 C CNN
F 3 "" H 4900 3600 50  0001 C CNN
	1    4900 3600
	1    0    0    -1  
$EndComp
Wire Wire Line
	4900 3250 4900 3600
$Comp
L power:+5V #PWR01
U 1 1 6191E3B0
P 4500 3000
F 0 "#PWR01" H 4500 2850 50  0001 C CNN
F 1 "+5V" H 4515 3173 50  0000 C CNN
F 2 "" H 4500 3000 50  0001 C CNN
F 3 "" H 4500 3000 50  0001 C CNN
	1    4500 3000
	1    0    0    -1  
$EndComp
Wire Wire Line
	4500 3000 4500 3500
Wire Wire Line
	4500 3500 4800 3500
Wire Wire Line
	4800 3500 4800 3250
$Comp
L Device:R_US R1
U 1 1 6191F1AC
P 7150 3700
F 0 "R1" V 7355 3700 50  0000 C CNN
F 1 "10k" V 7264 3700 50  0000 C CNN
F 2 "Resistor_SMD:R_0805_2012Metric" V 7190 3690 50  0001 C CNN
F 3 "~" H 7150 3700 50  0001 C CNN
	1    7150 3700
	0    -1   -1   0   
$EndComp
Wire Wire Line
	7000 3700 6500 3700
$Comp
L Transistor_BJT:BC547 Q1
U 1 1 6191FDCC
P 7950 3700
F 0 "Q1" H 8141 3746 50  0000 L CNN
F 1 "BC547" H 8141 3655 50  0000 L CNN
F 2 "Package_TO_SOT_THT:TO-92_Inline" H 8150 3625 50  0001 L CIN
F 3 "https://www.onsemi.com/pub/Collateral/BC550-D.pdf" H 7950 3700 50  0001 L CNN
	1    7950 3700
	1    0    0    -1  
$EndComp
Wire Wire Line
	7300 3700 7750 3700
$Comp
L power:GND #PWR010
U 1 1 61920636
P 8050 4600
F 0 "#PWR010" H 8050 4350 50  0001 C CNN
F 1 "GND" H 8055 4427 50  0000 C CNN
F 2 "" H 8050 4600 50  0001 C CNN
F 3 "" H 8050 4600 50  0001 C CNN
	1    8050 4600
	1    0    0    -1  
$EndComp
Wire Wire Line
	8050 3900 8050 4600
$Comp
L Relay:ADW11 K1
U 1 1 619220A8
P 8250 2650
F 0 "K1" H 8680 2696 50  0000 L CNN
F 1 "ADW11" H 8680 2605 50  0000 L CNN
F 2 "Relay_THT:Relay_1P1T_NO_10x24x18.8mm_Panasonic_ADW11xxxxW_THT" H 9575 2600 50  0001 C CNN
F 3 "https://www.panasonic-electric-works.com/pew/es/downloads/ds_dw_hl_en.pdf" H 8250 2650 50  0001 C CNN
	1    8250 2650
	1    0    0    -1  
$EndComp
$Comp
L Device:D D1
U 1 1 61923092
P 7500 2650
F 0 "D1" V 7454 2730 50  0000 L CNN
F 1 "D" V 7545 2730 50  0000 L CNN
F 2 "Diode_SMD:D_0603_1608Metric" H 7500 2650 50  0001 C CNN
F 3 "~" H 7500 2650 50  0001 C CNN
	1    7500 2650
	0    1    1    0   
$EndComp
Wire Wire Line
	8050 2950 8050 3250
Wire Wire Line
	8050 2350 8050 2050
Wire Wire Line
	8050 2050 7500 2050
Wire Wire Line
	7500 2050 7500 2500
Wire Wire Line
	7500 2800 7500 3250
Wire Wire Line
	7500 3250 8050 3250
Connection ~ 8050 3250
Wire Wire Line
	8050 3250 8050 3500
$Comp
L power:+5V #PWR09
U 1 1 619247A2
P 8050 1700
F 0 "#PWR09" H 8050 1550 50  0001 C CNN
F 1 "+5V" H 8065 1873 50  0000 C CNN
F 2 "" H 8050 1700 50  0001 C CNN
F 3 "" H 8050 1700 50  0001 C CNN
	1    8050 1700
	1    0    0    -1  
$EndComp
Wire Wire Line
	8050 2050 8050 1700
Connection ~ 8050 2050
$Comp
L Connector:Conn_01x02_Female J2
U 1 1 6192594D
P 9500 2600
F 0 "J2" H 9450 2300 50  0000 L CNN
F 1 "HighPower" H 9300 2400 50  0000 L CNN
F 2 "Connector_Phoenix_MC_HighVoltage:PhoenixContact_MCV_1,5_2-GF-5.08_1x02_P5.08mm_Vertical_ThreadedFlange_MountHole" H 9500 2600 50  0001 C CNN
F 3 "~" H 9500 2600 50  0001 C CNN
	1    9500 2600
	1    0    0    -1  
$EndComp
Wire Wire Line
	9300 2600 9150 2600
Wire Wire Line
	9150 2600 9150 1900
Wire Wire Line
	9150 1900 8550 1900
Wire Wire Line
	8550 1900 8550 2350
Wire Wire Line
	8450 2950 8450 3450
Wire Wire Line
	8450 3450 9150 3450
Wire Wire Line
	9150 3450 9150 2700
Wire Wire Line
	9150 2700 9300 2700
Wire Notes Line
	9500 2600 9750 2600
Wire Notes Line
	9750 2600 9750 2000
Wire Notes Line
	9500 2700 9750 2700
Wire Notes Line
	9750 2700 9750 3300
Wire Notes Line
	9800 3300 9800 2000
Text Notes 9700 1900 0    50   ~ 0
220V
$Comp
L Connector:Barrel_Jack J3
U 1 1 6192A686
P 1700 2100
F 0 "J3" H 1757 2425 50  0000 C CNN
F 1 "Barrel_Jack" H 1757 2334 50  0000 C CNN
F 2 "Connector_BarrelJack:BarrelJack_Wuerth_6941xx301002" H 1750 2060 50  0001 C CNN
F 3 "~" H 1750 2060 50  0001 C CNN
	1    1700 2100
	1    0    0    -1  
$EndComp
$Comp
L Switch:SW_SPDT SW1
U 1 1 6192B737
P 2400 2000
F 0 "SW1" H 2400 2285 50  0000 C CNN
F 1 "SW_SPDT" H 2400 2194 50  0000 C CNN
F 2 "Connector_JST:JST_EH_B3B-EH-A_1x03_P2.50mm_Vertical" H 2400 2000 50  0001 C CNN
F 3 "~" H 2400 2000 50  0001 C CNN
	1    2400 2000
	1    0    0    -1  
$EndComp
NoConn ~ 2600 1900
$Comp
L power:+5V #PWR011
U 1 1 6192C1B6
P 3000 1850
F 0 "#PWR011" H 3000 1700 50  0001 C CNN
F 1 "+5V" H 3015 2023 50  0000 C CNN
F 2 "" H 3000 1850 50  0001 C CNN
F 3 "" H 3000 1850 50  0001 C CNN
	1    3000 1850
	1    0    0    -1  
$EndComp
$Comp
L power:GND #PWR012
U 1 1 6192C780
P 3000 2500
F 0 "#PWR012" H 3000 2250 50  0001 C CNN
F 1 "GND" H 3005 2327 50  0000 C CNN
F 2 "" H 3000 2500 50  0001 C CNN
F 3 "" H 3000 2500 50  0001 C CNN
	1    3000 2500
	1    0    0    -1  
$EndComp
Wire Wire Line
	3000 1850 3000 1950
Wire Wire Line
	3000 2100 2600 2100
Wire Wire Line
	3000 2500 3000 2350
Wire Wire Line
	3000 2200 2000 2200
Wire Wire Line
	2200 2000 2000 2000
$Comp
L power:PWR_FLAG #FLG0101
U 1 1 6192F2A1
P 3000 1950
F 0 "#FLG0101" H 3000 2025 50  0001 C CNN
F 1 "PWR_FLAG" V 3000 2078 50  0000 L CNN
F 2 "" H 3000 1950 50  0001 C CNN
F 3 "~" H 3000 1950 50  0001 C CNN
	1    3000 1950
	0    1    1    0   
$EndComp
Connection ~ 3000 1950
Wire Wire Line
	3000 1950 3000 2100
$Comp
L power:PWR_FLAG #FLG0102
U 1 1 6192F478
P 3000 2350
F 0 "#FLG0102" H 3000 2425 50  0001 C CNN
F 1 "PWR_FLAG" V 3000 2478 50  0000 L CNN
F 2 "" H 3000 2350 50  0001 C CNN
F 3 "~" H 3000 2350 50  0001 C CNN
	1    3000 2350
	0    1    1    0   
$EndComp
Connection ~ 3000 2350
Wire Wire Line
	3000 2350 3000 2200
$EndSCHEMATC
